<svg width="192" height="192" viewBox="0 0 192 192" fill="none" xmlns="http://www.w3.org/2000/svg">
<g clip-path="url(#clip0_3_208)">
<circle cx="96" cy="96" r="94" fill="white" stroke="#FF7F00" stroke-width="4"/>
<rect x="58.2822" y="75" width="64" height="32" rx="4" transform="rotate(15 58.2822 75)" fill="#FF7F00"/>
<path fill-rule="evenodd" clip-rule="evenodd" d="M66.8376 45V44.8613L154.377 98.1844L66.8376 151.507L66.8376 124H59L59 158.668C59 161.786 62.2267 163.673 64.839 162.082L164.057 101.646C166.669 100.054 166.733 96.1627 164.173 94.6033L64.9559 34.1668C62.3444 32.576 59 34.6132 59 37.7947L59 45H61V58H59L59 60H66.8376V58H65V45H66.8376Z" fill="#FF7F00"/>
<rect x="75" y="108" width="4" height="20" fill="#FF7F00"/>
<rect x="59" y="124" width="20" height="4" fill="#FF7F00"/>
<path d="M55 62C55 59.7909 56.7909 58 59 58H67C69.2091 58 71 59.7909 71 62V68H55V62Z" fill="#FF7F00"/>
<path d="M58 65H60V72C60 72.5523 59.5523 73 59 73C58.4477 73 58 72.5523 58 72V65Z" fill="#FF7F00"/>
<path d="M66 65H68V72C68 72.5523 67.5523 73 67 73C66.4477 73 66 72.5523 66 72V65Z" fill="#FF7F00"/>
</g>
<defs>
<clipPath id="clip0_3_208">
<rect width="192" height="192" fill="white"/>
</clipPath>
</defs>
</svg>
