<svg width="192" height="192" viewBox="0 0 192 192" fill="none" xmlns="http://www.w3.org/2000/svg">
<g clip-path="url(#clip0_3_298)">
<circle cx="96" cy="96" r="94" fill="white" stroke="#FF7F00" stroke-width="4"/>
<rect x="8" y="131" width="176" height="4" rx="2" fill="#FF7F00"/>
<path d="M25 79C25 76.7909 26.7909 75 29 75H61C63.2091 75 65 76.7909 65 79V135H25L25 79Z" fill="#FF7F00"/>
<path d="M127 79C127 76.7909 128.791 75 131 75H163C165.209 75 167 76.7909 167 79V135H127L127 79Z" fill="#FF7F00"/>
<path d="M54 59C54 56.7909 55.7909 55 58 55L134 55C136.209 55 138 56.7909 138 59V131H54L54 59Z" fill="white"/>
<path d="M58 58.3954C58 57.4084 58.7038 56.5982 59.6437 56.4568C66.8573 55.3718 84.02 53 96 53C107.98 53 125.143 55.3718 132.356 56.4568C133.296 56.5982 134 57.4084 134 58.3954V133H58L58 58.3954Z" stroke="#FF7F00" stroke-width="4"/>
<path d="M58 34.6959C58 33.7579 58.6447 32.9719 59.5301 32.7881C66.6108 31.3179 83.9572 28 96 28C108.043 28 125.389 31.3179 132.47 32.7881C133.355 32.9719 134 33.7579 134 34.6959V69L58 69L58 34.6959Z" stroke="#FF7F00" stroke-width="4"/>
<rect x="56" y="107" width="80" height="4" fill="#FF7F00"/>
<rect x="56" y="87" width="80" height="4" fill="#FF7F00"/>
<rect x="56" y="67" width="80" height="4" fill="#FF7F00"/>
<rect x="80" y="55" width="4" height="80" fill="#FF7F00"/>
<rect x="68" y="55" width="4" height="80" fill="#FF7F00"/>
<rect x="120" y="55" width="4" height="80" fill="#FF7F00"/>
<rect x="108" y="55" width="4" height="80" fill="#FF7F00"/>
<rect x="94" y="111" width="4" height="24" fill="#FF7F00"/>
<rect x="30" y="91" width="8" height="16" fill="white"/>
<rect x="142" y="91" width="8" height="16" fill="white"/>
<path d="M30 81C30 79.8954 30.8954 79 32 79H38V87H30V81Z" fill="white"/>
<rect x="142" y="79" width="8" height="8" fill="white"/>
<rect x="42" y="79" width="8" height="8" fill="white"/>
<path d="M154 79H160C161.105 79 162 79.8954 162 81V87H154V79Z" fill="white"/>
<rect x="42" y="91" width="8" height="16" fill="white"/>
<rect x="154" y="91" width="8" height="16" fill="white"/>
<rect x="42" y="111" width="8" height="20" fill="white"/>
<rect x="154" y="111" width="8" height="20" fill="white"/>
<rect x="30" y="111" width="8" height="20" fill="white"/>
<rect x="142" y="111" width="8" height="20" fill="white"/>
<path d="M89.1961 37L104.577 37L101.697 45H90.6361L89.1961 37Z" stroke="#FF7F00" stroke-width="2"/>
<path d="M86 34C86 33.4477 86.4477 33 87 33H89C89.5523 33 90 33.4477 90 34C90 34.5523 89.5523 35 89 35H87C86.4477 35 86 34.5523 86 34Z" fill="#FF7F00"/>
<circle cx="92" cy="48" r="1" fill="#FF7F00"/>
<circle cx="100" cy="48" r="1" fill="#FF7F00"/>
</g>
<defs>
<clipPath id="clip0_3_298">
<rect width="192" height="192" fill="white"/>
</clipPath>
</defs>
</svg>
