<svg width="192" height="192" viewBox="0 0 192 192" fill="none" xmlns="http://www.w3.org/2000/svg">
<g clip-path="url(#clip0_3_328)">
<circle cx="96" cy="96" r="94" fill="white" stroke="#FF7F00" stroke-width="4"/>
<path d="M40.9711 133.285C40.9711 133.285 51.2838 125.219 58.5001 121C84.4637 105.819 97.3332 123.328 123.5 108.5C138.5 100 142.5 74 148 66.5C153.5 59 168 61 168 61" stroke="#FF7F00" stroke-width="4"/>
<rect x="165" y="59" width="4" height="76" fill="#FF7F00"/>
<rect x="153" y="75" width="4" height="60" fill="#FF7F00"/>
<rect x="141" y="97" width="4" height="38" fill="#FF7F00"/>
<rect x="129" y="111" width="4" height="24" fill="#FF7F00"/>
<rect x="117" y="119" width="4" height="16" fill="#FF7F00"/>
<rect x="105" y="121" width="4" height="14" fill="#FF7F00"/>
<rect x="93" y="121" width="4" height="14" fill="#FF7F00"/>
<rect x="81" y="123" width="4" height="12" fill="#FF7F00"/>
<path d="M96 55L132.373 133H59.6269L96 55Z" stroke="white" stroke-width="4"/>
<rect x="8" y="131" width="176" height="4" rx="2" fill="#FF7F00"/>
<path d="M62.8197 133L96 64.5833L129.18 133H62.8197Z" stroke="#FF7F00" stroke-width="4"/>
<rect x="63" y="58" width="66" height="4" fill="#FF7F00"/>
<rect x="94" y="93" width="66" height="4" transform="rotate(-90 94 93)" fill="#FF7F00"/>
<rect x="71.2512" y="81.9203" width="66" height="4" transform="rotate(-45 71.2512 81.9203)" fill="#FF7F00"/>
<rect width="66" height="4" transform="matrix(-0.707107 -0.707107 -0.707107 0.707107 120.749 81.9203)" fill="#FF7F00"/>
<circle cx="96" cy="60" r="34" stroke="#FF7F00" stroke-width="4"/>
<circle cx="96" cy="60" r="8" fill="#FF7F00"/>
<mask id="path-20-inside-1_3_328" fill="white">
<path fill-rule="evenodd" clip-rule="evenodd" d="M104 100C104 95.5817 100.418 92 96 92C91.5817 92 88 95.5817 88 100V106C88 107.105 88.8954 108 90 108H96H102C103.105 108 104 107.105 104 106V100Z"/>
</mask>
<path fill-rule="evenodd" clip-rule="evenodd" d="M104 100C104 95.5817 100.418 92 96 92C91.5817 92 88 95.5817 88 100V106C88 107.105 88.8954 108 90 108H96H102C103.105 108 104 107.105 104 106V100Z" fill="white"/>
<path d="M96 96C98.2091 96 100 97.7909 100 100H108C108 93.3726 102.627 88 96 88V96ZM92 100C92 97.7909 93.7909 96 96 96V88C89.3726 88 84 93.3726 84 100H92ZM92 106V100H84V106H92ZM96 104H90V112H96V104ZM102 104H96V112H102V104ZM100 100V106H108V100H100ZM102 112C105.314 112 108 109.314 108 106H100C100 104.895 100.895 104 102 104V112ZM84 106C84 109.314 86.6863 112 90 112V104C91.1046 104 92 104.895 92 106H84Z" fill="#FF7F00" mask="url(#path-20-inside-1_3_328)"/>
<mask id="path-22-inside-2_3_328" fill="white">
<path fill-rule="evenodd" clip-rule="evenodd" d="M104 30C104 25.5817 100.418 22 96 22C91.5817 22 88 25.5817 88 30V36C88 37.1046 88.8954 38 90 38H96H102C103.105 38 104 37.1046 104 36V30Z"/>
</mask>
<path fill-rule="evenodd" clip-rule="evenodd" d="M104 30C104 25.5817 100.418 22 96 22C91.5817 22 88 25.5817 88 30V36C88 37.1046 88.8954 38 90 38H96H102C103.105 38 104 37.1046 104 36V30Z" fill="white"/>
<path d="M96 26C98.2091 26 100 27.7909 100 30H108C108 23.3726 102.627 18 96 18V26ZM92 30C92 27.7909 93.7909 26 96 26V18C89.3726 18 84 23.3726 84 30H92ZM92 36V30H84V36H92ZM96 34H90V42H96V34ZM102 34H96V42H102V34ZM100 30V36H108V30H100ZM102 42C105.314 42 108 39.3137 108 36H100C100 34.8954 100.895 34 102 34V42ZM84 36C84 39.3137 86.6863 42 90 42V34C91.1046 34 92 34.8954 92 36H84Z" fill="#FF7F00" mask="url(#path-22-inside-2_3_328)"/>
<mask id="path-24-inside-3_3_328" fill="white">
<path fill-rule="evenodd" clip-rule="evenodd" d="M70 65C70 60.5817 66.4183 57 62 57C57.5817 57 54 60.5817 54 65V71C54 72.1046 54.8954 73 56 73H62H68C69.1046 73 70 72.1046 70 71V65Z"/>
</mask>
<path fill-rule="evenodd" clip-rule="evenodd" d="M70 65C70 60.5817 66.4183 57 62 57C57.5817 57 54 60.5817 54 65V71C54 72.1046 54.8954 73 56 73H62H68C69.1046 73 70 72.1046 70 71V65Z" fill="white"/>
<path d="M62 61C64.2091 61 66 62.7909 66 65H74C74 58.3726 68.6274 53 62 53V61ZM58 65C58 62.7909 59.7909 61 62 61V53C55.3726 53 50 58.3726 50 65H58ZM58 71V65H50V71H58ZM62 69H56V77H62V69ZM68 69H62V77H68V69ZM66 65V71H74V65H66ZM68 77C71.3137 77 74 74.3137 74 71H66C66 69.8954 66.8954 69 68 69V77ZM50 71C50 74.3137 52.6863 77 56 77V69C57.1046 69 58 69.8954 58 71H50Z" fill="#FF7F00" mask="url(#path-24-inside-3_3_328)"/>
<mask id="path-26-inside-4_3_328" fill="white">
<path fill-rule="evenodd" clip-rule="evenodd" d="M78 89C78 84.5817 74.4183 81 70 81C65.5817 81 62 84.5817 62 89V95C62 96.1046 62.8954 97 64 97H70H76C77.1046 97 78 96.1046 78 95V89Z"/>
</mask>
<path fill-rule="evenodd" clip-rule="evenodd" d="M78 89C78 84.5817 74.4183 81 70 81C65.5817 81 62 84.5817 62 89V95C62 96.1046 62.8954 97 64 97H70H76C77.1046 97 78 96.1046 78 95V89Z" fill="white"/>
<path d="M70 85C72.2091 85 74 86.7909 74 89H82C82 82.3726 76.6274 77 70 77V85ZM66 89C66 86.7909 67.7909 85 70 85V77C63.3726 77 58 82.3726 58 89H66ZM66 95V89H58V95H66ZM70 93H64V101H70V93ZM76 93H70V101H76V93ZM74 89V95H82V89H74ZM76 101C79.3137 101 82 98.3137 82 95H74C74 93.8954 74.8954 93 76 93V101ZM58 95C58 98.3137 60.6863 101 64 101V93C65.1046 93 66 93.8954 66 95H58Z" fill="#FF7F00" mask="url(#path-26-inside-4_3_328)"/>
<mask id="path-28-inside-5_3_328" fill="white">
<path fill-rule="evenodd" clip-rule="evenodd" d="M78 40C78 35.5817 74.4183 32 70 32C65.5817 32 62 35.5817 62 40V46C62 47.1046 62.8954 48 64 48H70H76C77.1046 48 78 47.1046 78 46V40Z"/>
</mask>
<path fill-rule="evenodd" clip-rule="evenodd" d="M78 40C78 35.5817 74.4183 32 70 32C65.5817 32 62 35.5817 62 40V46C62 47.1046 62.8954 48 64 48H70H76C77.1046 48 78 47.1046 78 46V40Z" fill="white"/>
<path d="M70 36C72.2091 36 74 37.7909 74 40H82C82 33.3726 76.6274 28 70 28V36ZM66 40C66 37.7909 67.7909 36 70 36V28C63.3726 28 58 33.3726 58 40H66ZM66 46V40H58V46H66ZM70 44H64V52H70V44ZM76 44H70V52H76V44ZM74 40V46H82V40H74ZM76 52C79.3137 52 82 49.3137 82 46H74C74 44.8954 74.8954 44 76 44V52ZM58 46C58 49.3137 60.6863 52 64 52V44C65.1046 44 66 44.8954 66 46H58Z" fill="#FF7F00" mask="url(#path-28-inside-5_3_328)"/>
<mask id="path-30-inside-6_3_328" fill="white">
<path fill-rule="evenodd" clip-rule="evenodd" d="M130 89C130 84.5817 126.418 81 122 81C117.582 81 114 84.5817 114 89V95C114 96.1046 114.895 97 116 97H122H128C129.105 97 130 96.1046 130 95V89Z"/>
</mask>
<path fill-rule="evenodd" clip-rule="evenodd" d="M130 89C130 84.5817 126.418 81 122 81C117.582 81 114 84.5817 114 89V95C114 96.1046 114.895 97 116 97H122H128C129.105 97 130 96.1046 130 95V89Z" fill="white"/>
<path d="M122 85C124.209 85 126 86.7909 126 89H134C134 82.3726 128.627 77 122 77V85ZM118 89C118 86.7909 119.791 85 122 85V77C115.373 77 110 82.3726 110 89H118ZM118 95V89H110V95H118ZM122 93H116V101H122V93ZM128 93H122V101H128V93ZM126 89V95H134V89H126ZM128 101C131.314 101 134 98.3137 134 95H126C126 93.8954 126.895 93 128 93V101ZM110 95C110 98.3137 112.686 101 116 101V93C117.105 93 118 93.8954 118 95H110Z" fill="#FF7F00" mask="url(#path-30-inside-6_3_328)"/>
<mask id="path-32-inside-7_3_328" fill="white">
<path fill-rule="evenodd" clip-rule="evenodd" d="M130 40C130 35.5817 126.418 32 122 32C117.582 32 114 35.5817 114 40V46C114 47.1046 114.895 48 116 48H122H128C129.105 48 130 47.1046 130 46V40Z"/>
</mask>
<path fill-rule="evenodd" clip-rule="evenodd" d="M130 40C130 35.5817 126.418 32 122 32C117.582 32 114 35.5817 114 40V46C114 47.1046 114.895 48 116 48H122H128C129.105 48 130 47.1046 130 46V40Z" fill="white"/>
<path d="M122 36C124.209 36 126 37.7909 126 40H134C134 33.3726 128.627 28 122 28V36ZM118 40C118 37.7909 119.791 36 122 36V28C115.373 28 110 33.3726 110 40H118ZM118 46V40H110V46H118ZM122 44H116V52H122V44ZM128 44H122V52H128V44ZM126 40V46H134V40H126ZM128 52C131.314 52 134 49.3137 134 46H126C126 44.8954 126.895 44 128 44V52ZM110 46C110 49.3137 112.686 52 116 52V44C117.105 44 118 44.8954 118 46H110Z" fill="#FF7F00" mask="url(#path-32-inside-7_3_328)"/>
<mask id="path-34-inside-8_3_328" fill="white">
<path fill-rule="evenodd" clip-rule="evenodd" d="M138 65C138 60.5817 134.418 57 130 57C125.582 57 122 60.5817 122 65V71C122 72.1046 122.895 73 124 73H130H136C137.105 73 138 72.1046 138 71V65Z"/>
</mask>
<path fill-rule="evenodd" clip-rule="evenodd" d="M138 65C138 60.5817 134.418 57 130 57C125.582 57 122 60.5817 122 65V71C122 72.1046 122.895 73 124 73H130H136C137.105 73 138 72.1046 138 71V65Z" fill="white"/>
<path d="M130 61C132.209 61 134 62.7909 134 65H142C142 58.3726 136.627 53 130 53V61ZM126 65C126 62.7909 127.791 61 130 61V53C123.373 53 118 58.3726 118 65H126ZM126 71V65H118V71H126ZM130 69H124V77H130V69ZM136 69H130V77H136V69ZM134 65V71H142V65H134ZM136 77C139.314 77 142 74.3137 142 71H134C134 69.8954 134.895 69 136 69V77ZM118 71C118 74.3137 120.686 77 124 77V69C125.105 69 126 69.8954 126 71H118Z" fill="#FF7F00" mask="url(#path-34-inside-8_3_328)"/>
<rect x="25" y="109" width="32" height="24" fill="white" stroke="#FF7F00" stroke-width="4"/>
<rect x="31" y="107" width="20" height="28" fill="#FF7F00"/>
<path d="M40.4175 89.4175C40.7657 89.1679 41.2343 89.1679 41.5825 89.4175L63.5854 105.187C64.3755 105.753 63.9749 107 63.0029 107H18.9971C18.0251 107 17.6245 105.753 18.4146 105.187L40.4175 89.4175Z" fill="#FF7F00"/>
<path d="M41 89L57.4545 107H24.5455L41 89Z" fill="white"/>
<path d="M41 89L51.3923 107H30.6077L41 89Z" fill="#FF7F00"/>
<path d="M41 89L44.4641 107H37.5359L41 89Z" fill="white"/>
<rect x="40" y="81" width="2" height="9" rx="1" fill="#FF7F00"/>
<path d="M45.2664 83.1103C45.991 83.4822 45.991 84.5178 45.2664 84.8897L41.7066 86.7166C41.0411 87.0581 40.25 86.5749 40.25 85.8269V82.1731C40.25 81.4251 41.0411 80.9419 41.7066 81.2834L45.2664 83.1103Z" fill="#FF7F00"/>
</g>
<defs>
<clipPath id="clip0_3_328">
<rect width="192" height="192" fill="white"/>
</clipPath>
</defs>
</svg>
