<svg width="192" height="192" viewBox="0 0 192 192" fill="none" xmlns="http://www.w3.org/2000/svg">
<g clip-path="url(#clip0_4_100)">
<circle cx="96" cy="96" r="94" stroke="#FF7F00" stroke-width="4"/>
<path d="M27 146.5H87" stroke="#FF7F00" stroke-width="3"/>
<path d="M90 146.5L87 149.964L87 143.036L90 146.5Z" fill="#FF7F00"/>
<path d="M27 109L30.4641 112L23.5359 112L27 109Z" fill="#FF7F00"/>
<line x1="35" y1="145" x2="35" y2="135" stroke="#FF7F00" stroke-width="2"/>
<line x1="41" y1="145" x2="41" y2="127" stroke="#FF7F00" stroke-width="2"/>
<line x1="47" y1="145" x2="47" y2="131" stroke="#FF7F00" stroke-width="2"/>
<line x1="53" y1="145" x2="53" y2="121" stroke="#FF7F00" stroke-width="2"/>
<line x1="59" y1="145" x2="59" y2="127" stroke="#FF7F00" stroke-width="2"/>
<line x1="65" y1="145" x2="65" y2="113" stroke="#FF7F00" stroke-width="2"/>
<line x1="71" y1="145" x2="71" y2="117" stroke="#FF7F00" stroke-width="2"/>
<line x1="27" y1="148" x2="27" y2="112" stroke="#FF7F00" stroke-width="3"/>
<line x1="77" y1="145" x2="77" y2="125" stroke="#FF7F00" stroke-width="2"/>
<line x1="83" y1="145" x2="83" y2="121" stroke="#FF7F00" stroke-width="2"/>
<path d="M109 140.807L118 127.807L124 132.807L130 122.807L136 130.807L143 119.807L150 126.807L159 114.307" stroke="#FF7F00" stroke-width="2"/>
<path d="M160.657 111L160.657 117.928L154.657 114.464L160.657 111Z" fill="#FF7F00"/>
<path d="M106 146.5H166" stroke="#FF7F00" stroke-width="3"/>
<path d="M169 146.5L166 149.964L166 143.036L169 146.5Z" fill="#FF7F00"/>
<path d="M106 109L109.464 112L102.536 112L106 109Z" fill="#FF7F00"/>
<line x1="106" y1="148" x2="106" y2="112" stroke="#FF7F00" stroke-width="3"/>
<path fill-rule="evenodd" clip-rule="evenodd" d="M122.452 58.2053C123.455 55.3223 124 52.2248 124 49C124 33.536 111.464 21 96 21C80.536 21 68 33.536 68 49C68 64.464 80.536 77 96 77C100.68 77 105.092 75.8517 108.97 73.8215L96.1011 49.9724L122.452 58.2053Z" fill="#FF7F00"/>
<path fill-rule="evenodd" clip-rule="evenodd" d="M112.97 76.8215L100.101 52.9724L126.452 61.2053C124.1 67.9631 119.232 73.5425 112.97 76.8215Z" fill="#FF7F00"/>
<rect x="94" y="95" width="4" height="96" fill="#FF7F00"/>
<rect x="11.8" y="50" width="4" height="96" transform="rotate(-60 11.8 50)" fill="#FF7F00"/>
<rect width="4" height="96" transform="matrix(-0.5 -0.866025 -0.866025 0.5 180.2 50)" fill="#FF7F00"/>
</g>
<defs>
<clipPath id="clip0_4_100">
<rect width="192" height="192" fill="white"/>
</clipPath>
</defs>
</svg>
